// Jest Snapshot v1, https://goo.gl/fbAQLP

exports[`DropZone file list renders correctly when sortOrder is ASC 1`] = `"<div><table class=\\"table table-bordered table-condensed\\"><thead><tr><th>File<i class=\\"fa fa-caret-up\\"></i></th><th>Remove</th></tr></thead><tbody><tr><td>First</td><td><i class=\\"fa fa-trash\\"></i></td></tr><tr><td>Second</td><td><i class=\\"fa fa-trash\\"></i></td></tr></tbody><tfoot><tr><td><strong>2 files</strong><label><a>Add more files</a><input type=\\"file\\" accept=\\"accept\\" multiple=\\"\\" style=\\"display:none;\\"/></label></td><td><a>Remove all</a></td></tr></tfoot></table></div>"`;

exports[`DropZone file list renders correctly when sortOrder is DESC 1`] = `"<div><table class=\\"table table-bordered table-condensed\\"><thead><tr><th>File<i class=\\"fa fa-caret-down\\"></i></th><th>Remove</th></tr></thead><tbody><tr><td>Second</td><td><i class=\\"fa fa-trash\\"></i></td></tr><tr><td>First</td><td><i class=\\"fa fa-trash\\"></i></td></tr></tbody><tfoot><tr><td><strong>2 files</strong><label><a>Add more files</a><input type=\\"file\\" accept=\\"accept\\" multiple=\\"\\" style=\\"display:none;\\"/></label></td><td><a>Remove all</a></td></tr></tfoot></table></div>"`;

exports[`DropZone renders correctly with no files selected 1`] = `
<Dropzone
  accept="accept"
  className="drop-zone"
  disableClick={false}
  disablePreview={false}
  maxSize={Infinity}
  minSize={0}
  multiple={true}
  onDrop={[Function]}
  preventDropOnDocument={true}
>
  Drop your files here to select them 
  <br />
  or
  <br />
  <Button
    active={false}
    block={false}
    bsClass="btn"
    bsStyle="default"
    className="btn btn-primary"
    disabled={false}
  >
    Browse
  </Button>
</Dropzone>
`;

exports[`FileSelector renders correctly 1`] = `
<FormGroup
  bsClass="form-group"
>
  <Col
    bsClass="col"
    componentClass={[Function]}
    sm={2}
  >
    label
  </Col>
  <Col
    bsClass="col"
    componentClass="div"
    sm={10}
  >
    <InputGroup
      bsClass="input-group"
    >
      <FormControl
        bsClass="form-control"
        componentClass="input"
        readOnly={true}
        type="text"
        value="path"
      />
      <InputGroupButton
        bsClass="input-group-btn"
      >
        <label
          className="btn btn-primary"
        >
          Browse
          <FormControl
            accept="accept"
            bsClass="form-control"
            componentClass="input"
            onChange={[Function]}
            onClick={[Function]}
            style={
              Object {
                "display": "none",
              }
            }
            type="file"
          />
        </label>
      </InputGroupButton>
    </InputGroup>
  </Col>
</FormGroup>
`;
